<?xml version="1.0" encoding="UTF-8"?>
<svg width="40px" height="40px" viewBox="0 0 40 40" version="1.1" xmlns="http://www.w3.org/2000/svg" xmlns:xlink="http://www.w3.org/1999/xlink">
    <!-- Generator: Sketch 63 (92445) - https://sketch.com -->
    <title>warning</title>
    <desc>Created with Sketch.</desc>
    <g id="客户综合价值分析" stroke="none" stroke-width="1" fill="none" fill-rule="evenodd">
        <g id="2.2-风险" transform="translate(-93.000000, -379.000000)" fill="#F73563" fill-rule="nonzero">
            <path d="M132.228556,395.234225 L130.013465,395.940939 C129.428441,396.178193 128.733413,395.824836 128.498403,395.234225 C128.263393,394.643614 128.613408,393.941949 129.198432,393.704695 L131.413523,392.997981 C131.998547,392.760727 132.693575,393.114084 132.928585,393.704695 C133.158594,394.411408 132.80858,395.118122 132.228556,395.234225 Z M96.8021019,393.467441 C97.3871259,393.704695 97.7321401,394.290257 97.5021307,394.996971 C97.267121,395.466431 96.6870972,395.819788 95.9870685,395.703685 L93.7719776,394.996971 C93.1869535,394.759717 92.8419394,394.174154 93.0719488,393.467441 C93.3069585,392.87683 93.8869823,392.528521 94.587011,392.760727 L96.8021019,393.467441 Z M123.718207,383.351338 C124.068221,382.881878 124.76825,382.760727 125.348274,383.114084 C125.813293,383.467441 125.928297,384.174154 125.583283,384.759717 L124.183226,386.642605 C123.833211,387.112065 123.133183,387.233216 122.553159,386.879859 C122.08814,386.526502 121.973135,385.703685 122.318149,385.234225 L123.718207,383.351338 L123.718207,383.351338 Z M101.927312,386.526502 L100.527255,384.527511 C100.17724,384.058051 100.292245,383.351338 100.762264,382.881878 C101.347288,382.528521 102.042317,382.644624 102.392331,383.235235 L103.792389,385.118122 C104.142403,385.587582 104.027398,386.410399 103.557379,386.763756 C102.977355,387.117113 102.277327,387.00101 101.927312,386.526502 L101.927312,386.526502 Z M111.947724,382.528521 L111.947724,380.176174 C111.947724,379.46946 112.412743,379 113.112771,379 C113.8128,379 114.277819,379.46946 114.277819,380.176174 L114.277819,382.528521 C114.277819,383.235235 113.8128,383.704695 113.112771,383.704695 C112.417743,383.704695 111.947724,383.235235 111.947724,382.528521 L111.947724,382.528521 Z M124.76825,400.176174 L124.76825,411.942958 L101.462293,411.942958 L101.462293,400.176174 C101.462293,393.704695 106.707508,388.409389 113.117772,388.409389 C119.523035,388.409389 124.76825,393.704695 124.76825,400.176174 Z M99.1321976,416.647653 L99.1321976,414.295305 L127.098345,414.295305 L127.098345,416.647653 C127.098345,417.939929 126.048302,419 124.76825,419 L101.462293,419 C100.182241,419 99.1321976,417.939929 99.1321976,416.647653 Z" id="warning"></path>
        </g>
    </g>
</svg>