<?xml version="1.0" encoding="UTF-8"?>
<svg width="15px" height="8px" viewBox="0 0 15 8" version="1.1" xmlns="http://www.w3.org/2000/svg" xmlns:xlink="http://www.w3.org/1999/xlink">
    <!-- Generator: Sketch 63 (92445) - https://sketch.com -->
    <title>arrow-2</title>
    <desc>Created with Sketch.</desc>
    <g id="客户经理看板-存款" stroke="none" stroke-width="1" fill="none" fill-rule="evenodd">
        <g id="2.0-客户经理看板-存款" transform="translate(-499.000000, -3147.000000)" fill="#6195FF">
            <g id="编组" transform="translate(19.000000, 2978.000000)">
                <g id="编组-32" transform="translate(279.000000, 149.000000)">
                    <g id="编组-49">
                        <g id="编组-35">
                            <g id="编组-8" transform="translate(201.000000, 20.000000)">
                                <polygon id="arrow-2" transform="translate(7.500000, 4.000000) scale(1, -1) rotate(-180.000000) translate(-7.500000, -4.000000) " points="7.5 8 15 0 0 0"></polygon>
                            </g>
                        </g>
                    </g>
                </g>
            </g>
        </g>
    </g>
</svg>